{
  "creator": "Sanka Vollerei",
  "type": "latest",
  "comics": [
    {
      "title": "Kimetsu no Yaiba",
      "link": "/manga/kimetsu-no-yaiba-indonesia/",
      "image": "https://komiku.org/asset/img/lazy.jpg?resize=120,75",
      "chapter": "Unknown",
      "type": "latest",
      "source": "mixed"
    },
    {
      "title": "One Piece",
      "link": "/manga/komik-one-piece-indo/",
      "image": "https://komiku.org/asset/img/lazy.jpg?resize=120,75",
      "chapter": "Unknown",
      "type": "latest",
      "source": "mixed"
    },
    {
      "title": "Martial Peak Part 1",
      "link": "/manga/martial-peak/",
      "image": "https://komiku.org/asset/img/lazy.jpg?resize=120,75",
      "chapter": "Unknown",
      "type": "latest",
      "source": "mixed"
    },
    {
      "title": "Solo Leveling",
      "link": "/manga/solo-leveling-id/",
      "image": "https://komiku.org/asset/img/lazy.jpg?resize=120,75",
      "chapter": "Unknown",
      "type": "latest",
      "source": "mixed"
    },
    {
      "title": "Apotheosis",
      "link": "/manga/apotheosis-indonesia/",
      "image": "https://komiku.org/asset/img/lazy.jpg?resize=120,75",
      "chapter": "Unknown",
      "type": "latest",
      "source": "mixed"
    },
    {
      "title": "One Punch Man",
      "link": "/manga/manga-one-punch-man/",
      "image": "https://komiku.org/asset/img/lazy.jpg?resize=120,75",
      "chapter": "Unknown",
      "type": "latest",
      "source": "mixed"
    },
    {
      "title": "Tales of Demons and Gods",
      "link": "/manga/tales-demons-gods/",
      "image": "https://komiku.org/asset/img/lazy.jpg?resize=120,75",
      "chapter": "Unknown",
      "type": "latest",
      "source": "mixed"
    },
    {
      "title": "Magic Emperor",
      "link": "/manga/magic-emperor/",
      "image": "https://komiku.org/asset/img/lazy.jpg?resize=120,75",
      "chapter": "Unknown",
      "type": "latest",
      "source": "mixed"
    },
    {
      "title": "Rebirth Of The Urban Immortal Cultivator",
      "link": "/manga/rebirth-of-the-urban-immortal-cultivator/",
      "image": "https://komiku.org/asset/img/lazy.jpg?resize=120,75",
      "chapter": "Unknown",
      "type": "latest",
      "source": "mixed"
    },
    {
      "title": "Inkya no Boku ni Batsu Game ni Kokuhaku Shitekita Hazu no Gyaru ga, Doumitemo Boku ni Betahore Desu",
      "link": "/manga/inkya-no-boku-ni-batsu-game-ni-kokuhaku-shitekita-hazu-no-gyaru-ga-doumitemo-boku-ni-betahore-desu/",
      "image": "https://komiku.org/asset/img/lazy.jpg?resize=120,75",
      "chapter": "Unknown",
      "type": "latest",
      "source": "mixed"
    },
    {
      "title": "Tougen Anki",
      "link": "/manga/tougen-anki/",
      "image": "https://komiku.org/asset/img/lazy.jpg?resize=120,75",
      "chapter": "Unknown",
      "type": "latest",
      "source": "mixed"
    },
    {
      "title": "Sono Akuyaku Kizoku, Mama Heroine ga Suki Sugiru ~Shinshi na Doryoku de Saikyou to Nari Fuguu na Oshi Chara Tasukemakuru~",
      "link": "/manga/sono-akuyaku-kizoku-mama-heroine-ga-suki-sugiru-shinshi-na-doryoku-de-saikyou-to-nari-fuguu-na-oshi-chara-tasukemakuru/",
      "image": "https://komiku.org/asset/img/lazy.jpg?resize=120,75",
      "chapter": "Unknown",
      "type": "latest",
      "source": "mixed"
    },
    {
      "title": "Shijou Saikyou no Mahou Kenshi, F Rank Boukensha ni Tensei Suru",
      "link": "/manga/shijou-saikyou-no-mahou-kenshi-f-rank-boukensha-ni-tensei-suru/",
      "image": "https://komiku.org/asset/img/lazy.jpg?resize=120,75",
      "chapter": "Unknown",
      "type": "latest",
      "source": "mixed"
    },
    {
      "title": "Mokushiroku no Yonkishi",
      "link": "/manga/mokushiroku-no-yonkishi/",
      "image": "https://komiku.org/asset/img/lazy.jpg?resize=120,75",
      "chapter": "Unknown",
      "type": "latest",
      "source": "mixed"
    },
    {
      "title": "Isekai de Slow Life wo (Ganbou)",
      "link": "/manga/isekai-de-slow-life-wo-ganbou/",
      "image": "https://komiku.org/asset/img/lazy.jpg?resize=120,75",
      "chapter": "Unknown",
      "type": "latest",
      "source": "mixed"
    },
    {
      "title": "Kanan-sama wa Akumade Choroi",
      "link": "/manga/kanan-sama-wa-akumade-choroi/",
      "image": "https://komiku.org/asset/img/lazy.jpg?resize=120,75",
      "chapter": "Unknown",
      "type": "latest",
      "source": "mixed"
    },
    {
      "title": "Kaoru Hana wa Rin to Saku",
      "link": "/manga/kaoru-hana-wa-rin-to-saku/",
      "image": "https://komiku.org/asset/img/lazy.jpg?resize=120,75",
      "chapter": "Unknown",
      "type": "latest",
      "source": "mixed"
    },
    {
      "title": "Monster Eater Adventurer",
      "link": "/manga/monster-eater-adventurer/",
      "image": "https://komiku.org/asset/img/lazy.jpg?resize=120,75",
      "chapter": "Unknown",
      "type": "latest",
      "source": "mixed"
    },
    {
      "title": "How to Live as an Illegal Healer",
      "link": "/manga/how-to-live-as-an-illegal-healer/",
      "image": "https://komiku.org/asset/img/lazy.jpg?resize=120,75",
      "chapter": "Unknown",
      "type": "latest",
      "source": "mixed"
    },
    {
      "title": "The Undefeatable Swordsman",
      "link": "/manga/the-undefeatable-swordsman/",
      "image": "https://komiku.org/asset/img/lazy.jpg?resize=120,75",
      "chapter": "Unknown",
      "type": "latest",
      "source": "mixed"
    },
    {
      "title": "The Tutorial is Too Hard",
      "link": "/manga/the-tutorial-is-too-hard/",
      "image": "https://komiku.org/asset/img/lazy.jpg?resize=120,75",
      "chapter": "Unknown",
      "type": "latest",
      "source": "mixed"
    },
    {
      "title": "The Knight King Who Returned with a God",
      "link": "/manga/the-knight-king-who-returned-with-a-god/",
      "image": "https://komiku.org/asset/img/lazy.jpg?resize=120,75",
      "chapter": "Unknown",
      "type": "latest",
      "source": "mixed"
    },
    {
      "title": "The New Employee Kim Chul-Soo",
      "link": "/manga/the-new-employee-kim-chul-soo/",
      "image": "https://komiku.org/asset/img/lazy.jpg?resize=120,75",
      "chapter": "Unknown",
      "type": "latest",
      "source": "mixed"
    },
    {
      "title": "Regressing As The Reincarnated Bastard Of The Sword Clan",
      "link": "/manga/regressing-as-the-reincarnated-bastard-of-the-sword-clan/",
      "image": "https://komiku.org/asset/img/lazy.jpg?resize=120,75",
      "chapter": "Unknown",
      "type": "latest",
      "source": "mixed"
    }
  ],
  "pagination": {
    "current_page": 1,
    "per_page": 24,
    "total": 51,
    "has_more": true,
    "next_page": 2
  },
  "infinite_scroll": true
}